<?xml version="1.0" encoding="UTF-8" standalone="no"?>
<svg width="280px" height="280px" viewBox="0 0 280 280" version="1.1" xmlns="http://www.w3.org/2000/svg" xmlns:xlink="http://www.w3.org/1999/xlink" xmlns:sketch="http://www.bohemiancoding.com/sketch/ns">
    <title>boat</title>
    <description>Created with Sketch (http://www.bohemiancoding.com/sketch)</description>
    <defs></defs>
    <g id="layer1" stroke="none" stroke-width="1" fill="none" fill-rule="evenodd" sketch:type="MSPage">
        <path d="M111.922346,210 L167.128514,210 C167.128514,210 169.632989,189.174704 166.150625,154.399823 C162.66826,119.624942 139.896558,63 139.896558,63 C139.896558,63 113.997627,121.129719 111.922347,156.469878 C109.847067,191.810038 111.922346,210 111.922346,210 Z" id="boat" fill="#F6A623" sketch:type="MSShapeGroup"></path>
    </g>
</svg>